vcd/dump.36875309.vcd
$date
	Sun Oct 23 06:01:18 2022
$end
$version
	Icarus Verilog
$end
$timescale
	1ns
$end
$scope module testbench $end
$var reg 32 ! rQueryData [31:0] $end
$upscope $end
$scope module testbench $end
$scope module dut_if0 $end
$var wire 1 " checker_start $end
$upscope $end
$upscope $end
$scope module testbench $end
$scope module dut_if0 $end
$var wire 1 # checker_end $end
$upscope $end
$upscope $end
$scope module testbench $end
$scope module dut_if0 $end
$var reg 1 $ checker_run $end
$upscope $end
$upscope $end
$scope module testbench $end
$scope module dut_if0 $end
$var wire 32 % checker_rtl [31:0] $end
$upscope $end
$upscope $end
$scope module testbench $end
$scope module dut_if0 $end
$var reg 32 & checker_lls [31:0] $end
$upscope $end
$upscope $end
$enddefinitions $end
$comment Show the parameter values. $end
$dumpall
$end
#0
$dumpvars
bx &
bx %
x$
x#
0"
bx !
$end
#10
b0 &
b0 %
0#
0$
#122211
b10010 !
1"
#122214
b10010 &
b10010 %
1$
#122215
0"
#122218
b1001 &
b1001 %
#122222
b11100 &
b11100 %
#122226
b1110 &
b1110 %
#122230
b111 &
b111 %
#122234
b10110 &
b10110 %
#122238
b1011 &
b1011 %
#122242
b100010 &
b100010 %
#122246
b10001 &
b10001 %
#122250
b110100 &
b110100 %
#122254
b11010 &
b11010 %
#122258
b1101 &
b1101 %
#122262
b101000 &
b101000 %
#122266
b10100 &
b10100 %
#122270
b1010 &
b1010 %
#122274
b101 &
b101 %
#122278
b10000 &
b10000 %
#122282
b1000 &
b1000 %
#122286
b100 &
b100 %
#122290
b10 &
b10 %
#122294
b1 &
1#
b1 %
#122298
b0 &
b0 %
0#
0$
#1154909
b100 !
1"
#1154910
b100 &
b100 %
1$
#1154911
0"
#1154914
b10 &
b10 %
#1154918
b1 &
1#
b1 %
#1154922
b0 &
b0 %
0#
0$
#2186569
b11011 !
1"
#2186570
b11011 &
b11011 %
1$
#2186571
0"
#2186574
b1010010 &
b1010010 %
#2186578
b101001 &
b101001 %
#2186582
b1111100 &
b1111100 %
#2186586
b111110 &
b111110 %
#2186590
b11111 &
b11111 %
#2186594
b1011110 &
b1011110 %
#2186598
b101111 &
b101111 %
#2186602
b10001110 &
b10001110 %
#2186606
b1000111 &
b1000111 %
#2186610
b11010110 &
b11010110 %
#2186614
b1101011 &
b1101011 %
#2186618
b101000010 &
b101000010 %
#2186622
b10100001 &
b10100001 %
#2186626
b111100100 &
b111100100 %
#2186630
b11110010 &
b11110010 %
#2186634
b1111001 &
b1111001 %
#2186638
b101101100 &
b101101100 %
#2186642
b10110110 &
b10110110 %
#2186646
b1011011 &
b1011011 %
#2186650
b100010010 &
b100010010 %
#2186654
b10001001 &
b10001001 %
#2186658
b110011100 &
b110011100 %
#2186662
b11001110 &
b11001110 %
#2186666
b1100111 &
b1100111 %
#2186670
b100110110 &
b100110110 %
#2186674
b10011011 &
b10011011 %
#2186678
b111010010 &
b111010010 %
#2186682
b11101001 &
b11101001 %
#2186686
b1010111100 &
b1010111100 %
#2186690
b101011110 &
b101011110 %
#2186694
b10101111 &
b10101111 %
#2186698
b1000001110 &
b1000001110 %
#2186702
b100000111 &
b100000111 %
#2186706
b1100010110 &
b1100010110 %
#2186710
b110001011 &
b110001011 %
#2186714
b10010100010 &
b10010100010 %
#2186718
b1001010001 &
b1001010001 %
#2186722
b11011110100 &
b11011110100 %
#2186726
b1101111010 &
b1101111010 %
#2186730
b110111101 &
b110111101 %
#2186734
b10100111000 &
b10100111000 %
#2186738
b1010011100 &
b1010011100 %
#2186742
b101001110 &
b101001110 %
#2186746
b10100111 &
b10100111 %
#2186750
b111110110 &
b111110110 %
#2186754
b11111011 &
b11111011 %
#2186758
b1011110010 &
b1011110010 %
#2186762
b101111001 &
b101111001 %
#2186766
b10001101100 &
b10001101100 %
#2186770
b1000110110 &
b1000110110 %
#2186774
b100011011 &
b100011011 %
#2186778
b1101010010 &
b1101010010 %
#2186782
b110101001 &
b110101001 %
#2186786
b10011111100 &
b10011111100 %
#2186790
b1001111110 &
b1001111110 %
#2186794
b100111111 &
b100111111 %
#2186798
b1110111110 &
b1110111110 %
#2186802
b111011111 &
b111011111 %
#2186806
b10110011110 &
b10110011110 %
#2186810
b1011001111 &
b1011001111 %
#2186814
b100001101110 &
b100001101110 %
#2186818
b10000110111 &
b10000110111 %
#2186822
b110010100110 &
b110010100110 %
#2186826
b11001010011 &
b11001010011 %
#2186830
b1001011111010 &
b1001011111010 %
#2186834
b100101111101 &
b100101111101 %
#2186838
b1110001111000 &
b1110001111000 %
#2186842
b111000111100 &
b111000111100 %
#2186846
b11100011110 &
b11100011110 %
#2186850
b1110001111 &
b1110001111 %
#2186854
b101010101110 &
b101010101110 %
#2186858
b10101010111 &
b10101010111 %
#2186862
b1000000000110 &
b1000000000110 %
#2186866
b100000000011 &
b100000000011 %
#2186870
b1100000001010 &
b1100000001010 %
#2186874
b110000000101 &
b110000000101 %
#2186878
b10010000010000 &
b10010000010000 %
#2186882
b1001000001000 &
b1001000001000 %
#2186886
b100100000100 &
b100100000100 %
#2186890
b10010000010 &
b10010000010 %
#2186894
b1001000001 &
b1001000001 %
#2186898
b11011000100 &
b11011000100 %
#2186902
b1101100010 &
b1101100010 %
#2186906
b110110001 &
b110110001 %
#2186910
b10100010100 &
b10100010100 %
#2186914
b1010001010 &
b1010001010 %
#2186918
b101000101 &
b101000101 %
#2186922
b1111010000 &
b1111010000 %
#2186926
b111101000 &
b111101000 %
#2186930
b11110100 &
b11110100 %
#2186934
b1111010 &
b1111010 %
#2186938
b111101 &
b111101 %
#2186942
b10111000 &
b10111000 %
#2186946
b1011100 &
b1011100 %
#2186950
b101110 &
b101110 %
#2186954
b10111 &
b10111 %
#2186958
b1000110 &
b1000110 %
#2186962
b100011 &
b100011 %
#2186966
b1101010 &
b1101010 %
#2186970
b110101 &
b110101 %
#2186974
b10100000 &
b10100000 %
#2186978
b1010000 &
b1010000 %
#2186982
b101000 &
b101000 %
#2186986
b10100 &
b10100 %
#2186990
b1010 &
b1010 %
#2186994
b101 &
b101 %
#2186998
b10000 &
b10000 %
#2187002
b1000 &
b1000 %
#2187006
b100 &
b100 %
#2187010
b10 &
b10 %
#2187014
b1 &
1#
b1 %
#2187018
b0 &
b0 %
0#
0$
