vcd/dump.-858824662.vcd
$date
	Sat Oct 22 21:48:16 2022
$end
$version
	Icarus Verilog
$end
$timescale
	1ns
$end
$scope module testbench $end
$var reg 32 ! rQueryData [31:0] $end
$upscope $end
$scope module testbench $end
$scope module dut_if0 $end
$var wire 1 " checker_start $end
$upscope $end
$upscope $end
$scope module testbench $end
$scope module dut_if0 $end
$var wire 1 # checker_end $end
$upscope $end
$upscope $end
$scope module testbench $end
$scope module dut_if0 $end
$var reg 1 $ checker_run $end
$upscope $end
$upscope $end
$scope module testbench $end
$scope module dut_if0 $end
$var wire 32 % checker_rtl [31:0] $end
$upscope $end
$upscope $end
$scope module testbench $end
$scope module dut_if0 $end
$var reg 32 & checker_lls [31:0] $end
$upscope $end
$upscope $end
$enddefinitions $end
$comment Show the parameter values. $end
$dumpall
$end
#0
$dumpvars
bx &
bx %
x$
x#
0"
bx !
$end
#10
b0 &
b0 %
0#
0$
#745959
b1000 !
1"
#745962
b1000 &
b1000 %
1$
#745963
0"
#745966
b100 &
b100 %
#745970
b10 &
b10 %
#745974
b1 &
1#
b1 %
#745978
b0 &
b0 %
0#
0$
#1715595
b10101 !
1"
#1715598
b10101 &
b10101 %
1$
#1715599
0"
#1715602
b1000000 &
b1000000 %
#1715606
b100000 &
b100000 %
#1715610
b10000 &
b10000 %
#1715614
b1000 &
b1000 %
#1715618
b100 &
b100 %
#1715622
b10 &
b10 %
#1715626
b1 &
b1 %
1#
#1715630
b0 &
0#
b0 %
0$
#2778082
b11011 &
b11011 %
1$
b11011 !
1"
#2778083
0"
#2778086
b1010010 &
b1010010 %
#2778090
b101001 &
b101001 %
#2778094
b1111100 &
b1111100 %
#2778098
b111110 &
b111110 %
#2778102
b11111 &
b11111 %
#2778106
b1011110 &
b1011110 %
#2778110
b101111 &
b101111 %
#2778114
b10001110 &
b10001110 %
#2778118
b1000111 &
b1000111 %
#2778122
b11010110 &
b11010110 %
#2778126
b1101011 &
b1101011 %
#2778130
b101000010 &
b101000010 %
#2778134
b10100001 &
b10100001 %
#2778138
b111100100 &
b111100100 %
#2778142
b11110010 &
b11110010 %
#2778146
b1111001 &
b1111001 %
#2778150
b101101100 &
b101101100 %
#2778154
b10110110 &
b10110110 %
#2778158
b1011011 &
b1011011 %
#2778162
b100010010 &
b100010010 %
#2778166
b10001001 &
b10001001 %
#2778170
b110011100 &
b110011100 %
#2778174
b11001110 &
b11001110 %
#2778178
b1100111 &
b1100111 %
#2778182
b100110110 &
b100110110 %
#2778186
b10011011 &
b10011011 %
#2778190
b111010010 &
b111010010 %
#2778194
b11101001 &
b11101001 %
#2778198
b1010111100 &
b1010111100 %
#2778202
b101011110 &
b101011110 %
#2778206
b10101111 &
b10101111 %
#2778210
b1000001110 &
b1000001110 %
#2778214
b100000111 &
b100000111 %
#2778218
b1100010110 &
b1100010110 %
#2778222
b110001011 &
b110001011 %
#2778226
b10010100010 &
b10010100010 %
#2778230
b1001010001 &
b1001010001 %
#2778234
b11011110100 &
b11011110100 %
#2778238
b1101111010 &
b1101111010 %
#2778242
b110111101 &
b110111101 %
#2778246
b10100111000 &
b10100111000 %
#2778250
b1010011100 &
b1010011100 %
#2778254
b101001110 &
b101001110 %
#2778258
b10100111 &
b10100111 %
#2778262
b111110110 &
b111110110 %
#2778266
b11111011 &
b11111011 %
#2778270
b1011110010 &
b1011110010 %
#2778274
b101111001 &
b101111001 %
#2778278
b10001101100 &
b10001101100 %
#2778282
b1000110110 &
b1000110110 %
#2778286
b100011011 &
b100011011 %
#2778290
b1101010010 &
b1101010010 %
#2778294
b110101001 &
b110101001 %
#2778298
b10011111100 &
b10011111100 %
#2778302
b1001111110 &
b1001111110 %
#2778306
b100111111 &
b100111111 %
#2778310
b1110111110 &
b1110111110 %
#2778314
b111011111 &
b111011111 %
#2778318
b10110011110 &
b10110011110 %
#2778322
b1011001111 &
b1011001111 %
#2778326
b100001101110 &
b100001101110 %
#2778330
b10000110111 &
b10000110111 %
#2778334
b110010100110 &
b110010100110 %
#2778338
b11001010011 &
b11001010011 %
#2778342
b1001011111010 &
b1001011111010 %
#2778346
b100101111101 &
b100101111101 %
#2778350
b1110001111000 &
b1110001111000 %
#2778354
b111000111100 &
b111000111100 %
#2778358
b11100011110 &
b11100011110 %
#2778362
b1110001111 &
b1110001111 %
#2778366
b101010101110 &
b101010101110 %
#2778370
b10101010111 &
b10101010111 %
#2778374
b1000000000110 &
b1000000000110 %
#2778378
b100000000011 &
b100000000011 %
#2778382
b1100000001010 &
b1100000001010 %
#2778386
b110000000101 &
b110000000101 %
#2778390
b10010000010000 &
b10010000010000 %
#2778394
b1001000001000 &
b1001000001000 %
#2778398
b100100000100 &
b100100000100 %
#2778402
b10010000010 &
b10010000010 %
#2778406
b1001000001 &
b1001000001 %
#2778410
b11011000100 &
b11011000100 %
#2778414
b1101100010 &
b1101100010 %
#2778418
b110110001 &
b110110001 %
#2778422
b10100010100 &
b10100010100 %
#2778426
b1010001010 &
b1010001010 %
#2778430
b101000101 &
b101000101 %
#2778434
b1111010000 &
b1111010000 %
#2778438
b111101000 &
b111101000 %
#2778442
b11110100 &
b11110100 %
#2778446
b1111010 &
b1111010 %
#2778450
b111101 &
b111101 %
#2778454
b10111000 &
b10111000 %
#2778458
b1011100 &
b1011100 %
#2778462
b101110 &
b101110 %
#2778466
b10111 &
b10111 %
#2778470
b1000110 &
b1000110 %
#2778474
b100011 &
b100011 %
#2778478
b1101010 &
b1101010 %
#2778482
b110101 &
b110101 %
#2778486
b10100000 &
b10100000 %
#2778490
b1010000 &
b1010000 %
#2778494
b101000 &
b101000 %
#2778498
b10100 &
b10100 %
#2778502
b1010 &
b1010 %
#2778506
b101 &
b101 %
#2778510
b10000 &
b10000 %
#2778514
b1000 &
b1000 %
#2778518
b100 &
b100 %
#2778522
b10 &
b10 %
#2778526
b1 &
1#
b1 %
#2778530
b0 &
b0 %
0#
0$
