vcd/dump.236875266.vcd
$date
	Sun Oct 23 00:43:19 2022
$end
$version
	Icarus Verilog
$end
$timescale
	1ns
$end
$scope module testbench $end
$var reg 32 ! rQueryData [31:0] $end
$upscope $end
$scope module testbench $end
$scope module dut_if0 $end
$var wire 1 " checker_start $end
$upscope $end
$upscope $end
$scope module testbench $end
$scope module dut_if0 $end
$var wire 1 # checker_end $end
$upscope $end
$upscope $end
$scope module testbench $end
$scope module dut_if0 $end
$var reg 1 $ checker_run $end
$upscope $end
$upscope $end
$scope module testbench $end
$scope module dut_if0 $end
$var wire 32 % checker_rtl [31:0] $end
$upscope $end
$upscope $end
$scope module testbench $end
$scope module dut_if0 $end
$var reg 32 & checker_lls [31:0] $end
$upscope $end
$upscope $end
$enddefinitions $end
$comment Show the parameter values. $end
$dumpall
$end
#0
$dumpvars
bx &
bx %
x$
x#
0"
bx !
$end
#10
b0 &
b0 %
0#
0$
#410419
b11110 !
1"
#410422
b11110 &
b11110 %
1$
#410423
0"
#410426
b1111 &
b1111 %
#410430
b101110 &
b101110 %
#410434
b10111 &
b10111 %
#410438
b1000110 &
b1000110 %
#410442
b100011 &
b100011 %
#410446
b1101010 &
b1101010 %
#410450
b110101 &
b110101 %
#410454
b10100000 &
b10100000 %
#410458
b1010000 &
b1010000 %
#410462
b101000 &
b101000 %
#410466
b10100 &
b10100 %
#410470
b1010 &
b1010 %
#410474
b101 &
b101 %
#410478
b10000 &
b10000 %
#410482
b1000 &
b1000 %
#410486
b100 &
b100 %
#410490
b10 &
b10 %
#410494
b1 &
1#
b1 %
#410498
b0 &
b0 %
0#
0$
#1400087
b1111 !
1"
#1400090
b1111 &
b1111 %
1$
#1400091
0"
#1400094
b101110 &
b101110 %
#1400098
b10111 &
b10111 %
#1400102
b1000110 &
b1000110 %
#1400106
b100011 &
b100011 %
#1400110
b1101010 &
b1101010 %
#1400114
b110101 &
b110101 %
#1400118
b10100000 &
b10100000 %
#1400122
b1010000 &
b1010000 %
#1400126
b101000 &
b101000 %
#1400130
b10100 &
b10100 %
#1400134
b1010 &
b1010 %
#1400138
b101 &
b101 %
#1400142
b10000 &
b10000 %
#1400146
b1000 &
b1000 %
#1400150
b100 &
b100 %
#1400154
b10 &
b10 %
#1400158
b1 &
1#
b1 %
#1400162
b0 &
b0 %
0#
0$
#2377006
b101 &
b101 %
1$
b101 !
1"
#2377007
0"
#2377010
b10000 &
b10000 %
#2377014
b1000 &
b1000 %
#2377018
b100 &
b100 %
#2377022
b10 &
b10 %
#2377026
b1 &
b1 %
1#
#2377030
b0 &
0#
b0 %
0$
