vcd/dump.-1201509915.vcd
$date
	Sun Oct 23 09:56:55 2022
$end
$version
	Icarus Verilog
$end
$timescale
	1ns
$end
$scope module testbench $end
$var reg 32 ! rQueryData [31:0] $end
$upscope $end
$scope module testbench $end
$scope module dut_if0 $end
$var wire 1 " checker_start $end
$upscope $end
$upscope $end
$scope module testbench $end
$scope module dut_if0 $end
$var wire 1 # checker_end $end
$upscope $end
$upscope $end
$scope module testbench $end
$scope module dut_if0 $end
$var reg 1 $ checker_run $end
$upscope $end
$upscope $end
$scope module testbench $end
$scope module dut_if0 $end
$var wire 32 % checker_rtl [31:0] $end
$upscope $end
$upscope $end
$scope module testbench $end
$scope module dut_if0 $end
$var reg 32 & checker_lls [31:0] $end
$upscope $end
$upscope $end
$enddefinitions $end
$comment Show the parameter values. $end
$dumpall
$end
#0
$dumpvars
bx &
bx %
x$
x#
0"
bx !
$end
#10
b0 &
b0 %
0#
0$
#844910
b10001 &
b10001 %
1$
b10001 !
1"
#844911
0"
#844914
b110100 &
b110100 %
#844918
b11010 &
b11010 %
#844922
b1101 &
b1101 %
#844926
b101000 &
b101000 %
#844930
b10100 &
b10100 %
#844934
b1010 &
b1010 %
#844938
b101 &
b101 %
#844942
b10000 &
b10000 %
#844946
b1000 &
b1000 %
#844950
b100 &
b100 %
#844954
b10 &
b10 %
#844958
b1 &
1#
b1 %
#844962
b0 &
b0 %
0#
0$
#1780736
b1001 !
1"
#1780738
b1001 &
b1001 %
1$
#1780739
0"
#1780742
b11100 &
b11100 %
#1780746
b1110 &
b1110 %
#1780750
b111 &
b111 %
#1780754
b10110 &
b10110 %
#1780758
b1011 &
b1011 %
#1780762
b100010 &
b100010 %
#1780766
b10001 &
b10001 %
#1780770
b110100 &
b110100 %
#1780774
b11010 &
b11010 %
#1780778
b1101 &
b1101 %
#1780782
b101000 &
b101000 %
#1780786
b10100 &
b10100 %
#1780790
b1010 &
b1010 %
#1780794
b101 &
b101 %
#1780798
b10000 &
b10000 %
#1780802
b1000 &
b1000 %
#1780806
b100 &
b100 %
#1780810
b10 &
b10 %
#1780814
b1 &
1#
b1 %
#1780818
b0 &
b0 %
0#
0$
#2854322
b10111 &
b10111 %
1$
b10111 !
1"
#2854323
0"
#2854326
b1000110 &
b1000110 %
#2854330
b100011 &
b100011 %
#2854334
b1101010 &
b1101010 %
#2854338
b110101 &
b110101 %
#2854342
b10100000 &
b10100000 %
#2854346
b1010000 &
b1010000 %
#2854350
b101000 &
b101000 %
#2854354
b10100 &
b10100 %
#2854358
b1010 &
b1010 %
#2854362
b101 &
b101 %
#2854366
b10000 &
b10000 %
#2854370
b1000 &
b1000 %
#2854374
b100 &
b100 %
#2854378
b10 &
b10 %
#2854382
b1 &
1#
b1 %
#2854386
b0 &
b0 %
0#
0$
