vcd/dump.-1247078981.vcd
$date
	Sun Oct 23 00:19:35 2022
$end
$version
	Icarus Verilog
$end
$timescale
	1ns
$end
$scope module testbench $end
$var reg 32 ! rQueryData [31:0] $end
$upscope $end
$scope module testbench $end
$scope module dut_if0 $end
$var wire 1 " checker_start $end
$upscope $end
$upscope $end
$scope module testbench $end
$scope module dut_if0 $end
$var wire 1 # checker_end $end
$upscope $end
$upscope $end
$scope module testbench $end
$scope module dut_if0 $end
$var reg 1 $ checker_run $end
$upscope $end
$upscope $end
$scope module testbench $end
$scope module dut_if0 $end
$var wire 32 % checker_rtl [31:0] $end
$upscope $end
$upscope $end
$scope module testbench $end
$scope module dut_if0 $end
$var reg 32 & checker_lls [31:0] $end
$upscope $end
$upscope $end
$enddefinitions $end
$comment Show the parameter values. $end
$dumpall
$end
#0
$dumpvars
bx &
bx %
x$
x#
0"
bx !
$end
#10
b0 &
b0 %
0#
0$
#1058688
b10101 !
1"
#1058690
b10101 &
b10101 %
1$
#1058691
0"
#1058694
b1000000 &
b1000000 %
#1058698
b100000 &
b100000 %
#1058702
b10000 &
b10000 %
#1058706
b1000 &
b1000 %
#1058710
b100 &
b100 %
#1058714
b10 &
b10 %
#1058718
b1 &
1#
b1 %
#1058722
b0 &
b0 %
0#
0$
#2068056
b10111 !
1"
#2068058
b10111 &
b10111 %
1$
#2068059
0"
#2068062
b1000110 &
b1000110 %
#2068066
b100011 &
b100011 %
#2068070
b1101010 &
b1101010 %
#2068074
b110101 &
b110101 %
#2068078
b10100000 &
b10100000 %
#2068082
b1010000 &
b1010000 %
#2068086
b101000 &
b101000 %
#2068090
b10100 &
b10100 %
#2068094
b1010 &
b1010 %
#2068098
b101 &
b101 %
#2068102
b10000 &
b10000 %
#2068106
b1000 &
b1000 %
#2068110
b100 &
b100 %
#2068114
b10 &
b10 %
#2068118
b1 &
1#
b1 %
#2068122
b0 &
b0 %
0#
0$
#2985292
b10110 !
1"
#2985294
b10110 &
b10110 %
1$
#2985295
0"
#2985298
b1011 &
b1011 %
#2985302
b100010 &
b100010 %
#2985306
b10001 &
b10001 %
#2985310
b110100 &
b110100 %
#2985314
b11010 &
b11010 %
#2985318
b1101 &
b1101 %
#2985322
b101000 &
b101000 %
#2985326
b10100 &
b10100 %
#2985330
b1010 &
b1010 %
#2985334
b101 &
b101 %
#2985338
b10000 &
b10000 %
#2985342
b1000 &
b1000 %
#2985346
b100 &
b100 %
#2985350
b10 &
b10 %
#2985354
b1 &
b1 %
1#
#2985358
b0 &
0#
b0 %
0$
