vcd/dump.-1198362944.vcd
$date
	Sun Oct 23 00:30:54 2022
$end
$version
	Icarus Verilog
$end
$timescale
	1ns
$end
$scope module testbench $end
$var reg 32 ! rQueryData [31:0] $end
$upscope $end
$scope module testbench $end
$scope module dut_if0 $end
$var wire 1 " checker_start $end
$upscope $end
$upscope $end
$scope module testbench $end
$scope module dut_if0 $end
$var wire 1 # checker_end $end
$upscope $end
$upscope $end
$scope module testbench $end
$scope module dut_if0 $end
$var reg 1 $ checker_run $end
$upscope $end
$upscope $end
$scope module testbench $end
$scope module dut_if0 $end
$var wire 32 % checker_rtl [31:0] $end
$upscope $end
$upscope $end
$scope module testbench $end
$scope module dut_if0 $end
$var reg 32 & checker_lls [31:0] $end
$upscope $end
$upscope $end
$enddefinitions $end
$comment Show the parameter values. $end
$dumpall
$end
#0
$dumpvars
bx &
bx %
x$
x#
0"
bx !
$end
#10
b0 &
b0 %
0#
0$
#594360
b1100 !
1"
#594362
b1100 &
b1100 %
1$
#594363
0"
#594366
b110 &
b110 %
#594370
b11 &
b11 %
#594374
b1010 &
b1010 %
#594378
b101 &
b101 %
#594382
b10000 &
b10000 %
#594386
b1000 &
b1000 %
#594390
b100 &
b100 %
#594394
b10 &
b10 %
#594398
b1 &
1#
b1 %
#594402
b0 &
b0 %
0#
0$
#1575487
b11110 !
1"
#1575490
b11110 &
b11110 %
1$
#1575491
0"
#1575494
b1111 &
b1111 %
#1575498
b101110 &
b101110 %
#1575502
b10111 &
b10111 %
#1575506
b1000110 &
b1000110 %
#1575510
b100011 &
b100011 %
#1575514
b1101010 &
b1101010 %
#1575518
b110101 &
b110101 %
#1575522
b10100000 &
b10100000 %
#1575526
b1010000 &
b1010000 %
#1575530
b101000 &
b101000 %
#1575534
b10100 &
b10100 %
#1575538
b1010 &
b1010 %
#1575542
b101 &
b101 %
#1575546
b10000 &
b10000 %
#1575550
b1000 &
b1000 %
#1575554
b100 &
b100 %
#1575558
b10 &
b10 %
#1575562
b1 &
b1 %
1#
#1575566
b0 &
0#
b0 %
0$
#2574569
b11101 !
1"
#2574570
b11101 &
b11101 %
1$
#2574571
0"
#2574574
b1011000 &
b1011000 %
#2574578
b101100 &
b101100 %
#2574582
b10110 &
b10110 %
#2574586
b1011 &
b1011 %
#2574590
b100010 &
b100010 %
#2574594
b10001 &
b10001 %
#2574598
b110100 &
b110100 %
#2574602
b11010 &
b11010 %
#2574606
b1101 &
b1101 %
#2574610
b101000 &
b101000 %
#2574614
b10100 &
b10100 %
#2574618
b1010 &
b1010 %
#2574622
b101 &
b101 %
#2574626
b10000 &
b10000 %
#2574630
b1000 &
b1000 %
#2574634
b100 &
b100 %
#2574638
b10 &
b10 %
#2574642
b1 &
b1 %
1#
#2574646
b0 &
0#
b0 %
0$
