vcd/dump.-726395190.vcd
$date
	Sun Oct 23 04:58:09 2022
$end
$version
	Icarus Verilog
$end
$timescale
	1ns
$end
$scope module testbench $end
$var reg 32 ! rQueryData [31:0] $end
$upscope $end
$scope module testbench $end
$scope module dut_if0 $end
$var wire 1 " checker_start $end
$upscope $end
$upscope $end
$scope module testbench $end
$scope module dut_if0 $end
$var wire 1 # checker_end $end
$upscope $end
$upscope $end
$scope module testbench $end
$scope module dut_if0 $end
$var reg 1 $ checker_run $end
$upscope $end
$upscope $end
$scope module testbench $end
$scope module dut_if0 $end
$var wire 32 % checker_rtl [31:0] $end
$upscope $end
$upscope $end
$scope module testbench $end
$scope module dut_if0 $end
$var reg 32 & checker_lls [31:0] $end
$upscope $end
$upscope $end
$enddefinitions $end
$comment Show the parameter values. $end
$dumpall
$end
#0
$dumpvars
bx &
bx %
x$
x#
0"
bx !
$end
#10
b0 &
b0 %
0#
0$
#600609
b10111 !
1"
#600610
b10111 &
b10111 %
1$
#600611
0"
#600614
b1000110 &
b1000110 %
#600618
b100011 &
b100011 %
#600622
b1101010 &
b1101010 %
#600626
b110101 &
b110101 %
#600630
b10100000 &
b10100000 %
#600634
b1010000 &
b1010000 %
#600638
b101000 &
b101000 %
#600642
b10100 &
b10100 %
#600646
b1010 &
b1010 %
#600650
b101 &
b101 %
#600654
b10000 &
b10000 %
#600658
b1000 &
b1000 %
#600662
b100 &
b100 %
#600666
b10 &
b10 %
#600670
b1 &
1#
b1 %
#600674
b0 &
b0 %
0#
0$
#1659876
b11001 !
1"
#1659878
b11001 &
b11001 %
1$
#1659879
0"
#1659882
b1001100 &
b1001100 %
#1659886
b100110 &
b100110 %
#1659890
b10011 &
b10011 %
#1659894
b111010 &
b111010 %
#1659898
b11101 &
b11101 %
#1659902
b1011000 &
b1011000 %
#1659906
b101100 &
b101100 %
#1659910
b10110 &
b10110 %
#1659914
b1011 &
b1011 %
#1659918
b100010 &
b100010 %
#1659922
b10001 &
b10001 %
#1659926
b110100 &
b110100 %
#1659930
b11010 &
b11010 %
#1659934
b1101 &
b1101 %
#1659938
b101000 &
b101000 %
#1659942
b10100 &
b10100 %
#1659946
b1010 &
b1010 %
#1659950
b101 &
b101 %
#1659954
b10000 &
b10000 %
#1659958
b1000 &
b1000 %
#1659962
b100 &
b100 %
#1659966
b10 &
b10 %
#1659970
b1 &
b1 %
1#
#1659974
b0 &
0#
b0 %
0$
#2600942
b11100 &
b11100 %
1$
b11100 !
1"
#2600943
0"
#2600946
b1110 &
b1110 %
#2600950
b111 &
b111 %
#2600954
b10110 &
b10110 %
#2600958
b1011 &
b1011 %
#2600962
b100010 &
b100010 %
#2600966
b10001 &
b10001 %
#2600970
b110100 &
b110100 %
#2600974
b11010 &
b11010 %
#2600978
b1101 &
b1101 %
#2600982
b101000 &
b101000 %
#2600986
b10100 &
b10100 %
#2600990
b1010 &
b1010 %
#2600994
b101 &
b101 %
#2600998
b10000 &
b10000 %
#2601002
b1000 &
b1000 %
#2601006
b100 &
b100 %
#2601010
b10 &
b10 %
#2601014
b1 &
1#
b1 %
#2601018
b0 &
b0 %
0#
0$
