vcd/dump.-1518038748.vcd
$date
	Sun Oct 23 09:47:39 2022
$end
$version
	Icarus Verilog
$end
$timescale
	1ns
$end
$scope module testbench $end
$var reg 32 ! rQueryData [31:0] $end
$upscope $end
$scope module testbench $end
$scope module dut_if0 $end
$var wire 1 " checker_start $end
$upscope $end
$upscope $end
$scope module testbench $end
$scope module dut_if0 $end
$var wire 1 # checker_end $end
$upscope $end
$upscope $end
$scope module testbench $end
$scope module dut_if0 $end
$var reg 1 $ checker_run $end
$upscope $end
$upscope $end
$scope module testbench $end
$scope module dut_if0 $end
$var wire 32 % checker_rtl [31:0] $end
$upscope $end
$upscope $end
$scope module testbench $end
$scope module dut_if0 $end
$var reg 32 & checker_lls [31:0] $end
$upscope $end
$upscope $end
$enddefinitions $end
$comment Show the parameter values. $end
$dumpall
$end
#0
$dumpvars
bx &
bx %
x$
x#
0"
bx !
$end
#10
b0 &
b0 %
0#
0$
#316306
b11110 &
b11110 %
1$
b11110 !
1"
#316307
0"
#316310
b1111 &
b1111 %
#316314
b101110 &
b101110 %
#316318
b10111 &
b10111 %
#316322
b1000110 &
b1000110 %
#316326
b100011 &
b100011 %
#316330
b1101010 &
b1101010 %
#316334
b110101 &
b110101 %
#316338
b10100000 &
b10100000 %
#316342
b1010000 &
b1010000 %
#316346
b101000 &
b101000 %
#316350
b10100 &
b10100 %
#316354
b1010 &
b1010 %
#316358
b101 &
b101 %
#316362
b10000 &
b10000 %
#316366
b1000 &
b1000 %
#316370
b100 &
b100 %
#316374
b10 &
b10 %
#316378
b1 &
b1 %
1#
#316382
b0 &
0#
b0 %
0$
#1359153
b1100 !
1"
#1359154
b1100 &
b1100 %
1$
#1359155
0"
#1359158
b110 &
b110 %
#1359162
b11 &
b11 %
#1359166
b1010 &
b1010 %
#1359170
b101 &
b101 %
#1359174
b10000 &
b10000 %
#1359178
b1000 &
b1000 %
#1359182
b100 &
b100 %
#1359186
b10 &
b10 %
#1359190
b1 &
1#
b1 %
#1359194
b0 &
b0 %
0#
0$
#2398609
b11100 !
1"
#2398610
b11100 &
b11100 %
1$
#2398611
0"
#2398614
b1110 &
b1110 %
#2398618
b111 &
b111 %
#2398622
b10110 &
b10110 %
#2398626
b1011 &
b1011 %
#2398630
b100010 &
b100010 %
#2398634
b10001 &
b10001 %
#2398638
b110100 &
b110100 %
#2398642
b11010 &
b11010 %
#2398646
b1101 &
b1101 %
#2398650
b101000 &
b101000 %
#2398654
b10100 &
b10100 %
#2398658
b1010 &
b1010 %
#2398662
b101 &
b101 %
#2398666
b10000 &
b10000 %
#2398670
b1000 &
b1000 %
#2398674
b100 &
b100 %
#2398678
b10 &
b10 %
#2398682
b1 &
b1 %
1#
#2398686
b0 &
0#
b0 %
0$
