vcd/dump.1609745111.vcd
$date
	Sat Oct 22 19:55:48 2022
$end
$version
	Icarus Verilog
$end
$timescale
	1ns
$end
$scope module testbench $end
$var reg 32 ! rQueryData [31:0] $end
$upscope $end
$scope module testbench $end
$scope module dut_if0 $end
$var wire 1 " checker_start $end
$upscope $end
$upscope $end
$scope module testbench $end
$scope module dut_if0 $end
$var wire 1 # checker_end $end
$upscope $end
$upscope $end
$scope module testbench $end
$scope module dut_if0 $end
$var reg 1 $ checker_run $end
$upscope $end
$upscope $end
$scope module testbench $end
$scope module dut_if0 $end
$var wire 32 % checker_rtl [31:0] $end
$upscope $end
$upscope $end
$scope module testbench $end
$scope module dut_if0 $end
$var reg 32 & checker_lls [31:0] $end
$upscope $end
$upscope $end
$enddefinitions $end
$comment Show the parameter values. $end
$dumpall
$end
#0
$dumpvars
bx &
bx %
x$
x#
0"
bx !
$end
#10
b0 &
b0 %
0#
0$
#702235
b1110 !
1"
#702238
b1110 &
b1110 %
1$
#702239
0"
#702242
b111 &
b111 %
#702246
b10110 &
b10110 %
#702250
b1011 &
b1011 %
#702254
b100010 &
b100010 %
#702258
b10001 &
b10001 %
#702262
b110100 &
b110100 %
#702266
b11010 &
b11010 %
#702270
b1101 &
b1101 %
#702274
b101000 &
b101000 %
#702278
b10100 &
b10100 %
#702282
b1010 &
b1010 %
#702286
b101 &
b101 %
#702290
b10000 &
b10000 %
#702294
b1000 &
b1000 %
#702298
b100 &
b100 %
#702302
b10 &
b10 %
#702306
b1 &
b1 %
1#
#702310
b0 &
0#
b0 %
0$
#1675573
b11011 !
1"
#1675574
b11011 &
b11011 %
1$
#1675575
0"
#1675578
b1010010 &
b1010010 %
#1675582
b101001 &
b101001 %
#1675586
b1111100 &
b1111100 %
#1675590
b111110 &
b111110 %
#1675594
b11111 &
b11111 %
#1675598
b1011110 &
b1011110 %
#1675602
b101111 &
b101111 %
#1675606
b10001110 &
b10001110 %
#1675610
b1000111 &
b1000111 %
#1675614
b11010110 &
b11010110 %
#1675618
b1101011 &
b1101011 %
#1675622
b101000010 &
b101000010 %
#1675626
b10100001 &
b10100001 %
#1675630
b111100100 &
b111100100 %
#1675634
b11110010 &
b11110010 %
#1675638
b1111001 &
b1111001 %
#1675642
b101101100 &
b101101100 %
#1675646
b10110110 &
b10110110 %
#1675650
b1011011 &
b1011011 %
#1675654
b100010010 &
b100010010 %
#1675658
b10001001 &
b10001001 %
#1675662
b110011100 &
b110011100 %
#1675666
b11001110 &
b11001110 %
#1675670
b1100111 &
b1100111 %
#1675674
b100110110 &
b100110110 %
#1675678
b10011011 &
b10011011 %
#1675682
b111010010 &
b111010010 %
#1675686
b11101001 &
b11101001 %
#1675690
b1010111100 &
b1010111100 %
#1675694
b101011110 &
b101011110 %
#1675698
b10101111 &
b10101111 %
#1675702
b1000001110 &
b1000001110 %
#1675706
b100000111 &
b100000111 %
#1675710
b1100010110 &
b1100010110 %
#1675714
b110001011 &
b110001011 %
#1675718
b10010100010 &
b10010100010 %
#1675722
b1001010001 &
b1001010001 %
#1675726
b11011110100 &
b11011110100 %
#1675730
b1101111010 &
b1101111010 %
#1675734
b110111101 &
b110111101 %
#1675738
b10100111000 &
b10100111000 %
#1675742
b1010011100 &
b1010011100 %
#1675746
b101001110 &
b101001110 %
#1675750
b10100111 &
b10100111 %
#1675754
b111110110 &
b111110110 %
#1675758
b11111011 &
b11111011 %
#1675762
b1011110010 &
b1011110010 %
#1675766
b101111001 &
b101111001 %
#1675770
b10001101100 &
b10001101100 %
#1675774
b1000110110 &
b1000110110 %
#1675778
b100011011 &
b100011011 %
#1675782
b1101010010 &
b1101010010 %
#1675786
b110101001 &
b110101001 %
#1675790
b10011111100 &
b10011111100 %
#1675794
b1001111110 &
b1001111110 %
#1675798
b100111111 &
b100111111 %
#1675802
b1110111110 &
b1110111110 %
#1675806
b111011111 &
b111011111 %
#1675810
b10110011110 &
b10110011110 %
#1675814
b1011001111 &
b1011001111 %
#1675818
b100001101110 &
b100001101110 %
#1675822
b10000110111 &
b10000110111 %
#1675826
b110010100110 &
b110010100110 %
#1675830
b11001010011 &
b11001010011 %
#1675834
b1001011111010 &
b1001011111010 %
#1675838
b100101111101 &
b100101111101 %
#1675842
b1110001111000 &
b1110001111000 %
#1675846
b111000111100 &
b111000111100 %
#1675850
b11100011110 &
b11100011110 %
#1675854
b1110001111 &
b1110001111 %
#1675858
b101010101110 &
b101010101110 %
#1675862
b10101010111 &
b10101010111 %
#1675866
b1000000000110 &
b1000000000110 %
#1675870
b100000000011 &
b100000000011 %
#1675874
b1100000001010 &
b1100000001010 %
#1675878
b110000000101 &
b110000000101 %
#1675882
b10010000010000 &
b10010000010000 %
#1675886
b1001000001000 &
b1001000001000 %
#1675890
b100100000100 &
b100100000100 %
#1675894
b10010000010 &
b10010000010 %
#1675898
b1001000001 &
b1001000001 %
#1675902
b11011000100 &
b11011000100 %
#1675906
b1101100010 &
b1101100010 %
#1675910
b110110001 &
b110110001 %
#1675914
b10100010100 &
b10100010100 %
#1675918
b1010001010 &
b1010001010 %
#1675922
b101000101 &
b101000101 %
#1675926
b1111010000 &
b1111010000 %
#1675930
b111101000 &
b111101000 %
#1675934
b11110100 &
b11110100 %
#1675938
b1111010 &
b1111010 %
#1675942
b111101 &
b111101 %
#1675946
b10111000 &
b10111000 %
#1675950
b1011100 &
b1011100 %
#1675954
b101110 &
b101110 %
#1675958
b10111 &
b10111 %
#1675962
b1000110 &
b1000110 %
#1675966
b100011 &
b100011 %
#1675970
b1101010 &
b1101010 %
#1675974
b110101 &
b110101 %
#1675978
b10100000 &
b10100000 %
#1675982
b1010000 &
b1010000 %
#1675986
b101000 &
b101000 %
#1675990
b10100 &
b10100 %
#1675994
b1010 &
b1010 %
#1675998
b101 &
b101 %
#1676002
b10000 &
b10000 %
#1676006
b1000 &
b1000 %
#1676010
b100 &
b100 %
#1676014
b10 &
b10 %
#1676018
b1 &
b1 %
1#
#1676022
b0 &
0#
b0 %
0$
#2663620
b11101 !
1"
#2663622
b11101 &
b11101 %
1$
#2663623
0"
#2663626
b1011000 &
b1011000 %
#2663630
b101100 &
b101100 %
#2663634
b10110 &
b10110 %
#2663638
b1011 &
b1011 %
#2663642
b100010 &
b100010 %
#2663646
b10001 &
b10001 %
#2663650
b110100 &
b110100 %
#2663654
b11010 &
b11010 %
#2663658
b1101 &
b1101 %
#2663662
b101000 &
b101000 %
#2663666
b10100 &
b10100 %
#2663670
b1010 &
b1010 %
#2663674
b101 &
b101 %
#2663678
b10000 &
b10000 %
#2663682
b1000 &
b1000 %
#2663686
b100 &
b100 %
#2663690
b10 &
b10 %
#2663694
b1 &
1#
b1 %
#2663698
b0 &
b0 %
0#
0$
