vcd/dump.-691723034.vcd
$date
	Sat Oct 22 22:53:48 2022
$end
$version
	Icarus Verilog
$end
$timescale
	1ns
$end
$scope module testbench $end
$var reg 32 ! rQueryData [31:0] $end
$upscope $end
$scope module testbench $end
$scope module dut_if0 $end
$var wire 1 " checker_start $end
$upscope $end
$upscope $end
$scope module testbench $end
$scope module dut_if0 $end
$var wire 1 # checker_end $end
$upscope $end
$upscope $end
$scope module testbench $end
$scope module dut_if0 $end
$var reg 1 $ checker_run $end
$upscope $end
$upscope $end
$scope module testbench $end
$scope module dut_if0 $end
$var wire 32 % checker_rtl [31:0] $end
$upscope $end
$upscope $end
$scope module testbench $end
$scope module dut_if0 $end
$var reg 32 & checker_lls [31:0] $end
$upscope $end
$upscope $end
$enddefinitions $end
$comment Show the parameter values. $end
$dumpall
$end
#0
$dumpvars
bx &
bx %
x$
x#
0"
bx !
$end
#10
b0 &
b0 %
0#
0$
#1028734
b10111 &
b10111 %
1$
b10111 !
1"
#1028735
0"
#1028738
b1000110 &
b1000110 %
#1028742
b100011 &
b100011 %
#1028746
b1101010 &
b1101010 %
#1028750
b110101 &
b110101 %
#1028754
b10100000 &
b10100000 %
#1028758
b1010000 &
b1010000 %
#1028762
b101000 &
b101000 %
#1028766
b10100 &
b10100 %
#1028770
b1010 &
b1010 %
#1028774
b101 &
b101 %
#1028778
b10000 &
b10000 %
#1028782
b1000 &
b1000 %
#1028786
b100 &
b100 %
#1028790
b10 &
b10 %
#1028794
b1 &
b1 %
1#
#1028798
b0 &
0#
b0 %
0$
#1997570
b10101 &
b10101 %
1$
b10101 !
1"
#1997571
0"
#1997574
b1000000 &
b1000000 %
#1997578
b100000 &
b100000 %
#1997582
b10000 &
b10000 %
#1997586
b1000 &
b1000 %
#1997590
b100 &
b100 %
#1997594
b10 &
b10 %
#1997598
b1 &
1#
b1 %
#1997602
b0 &
b0 %
0#
0$
#3050652
b1001 !
1"
#3050654
b1001 &
b1001 %
1$
#3050655
0"
#3050658
b11100 &
b11100 %
#3050662
b1110 &
b1110 %
#3050666
b111 &
b111 %
#3050670
b10110 &
b10110 %
#3050674
b1011 &
b1011 %
#3050678
b100010 &
b100010 %
#3050682
b10001 &
b10001 %
#3050686
b110100 &
b110100 %
#3050690
b11010 &
b11010 %
#3050694
b1101 &
b1101 %
#3050698
b101000 &
b101000 %
#3050702
b10100 &
b10100 %
#3050706
b1010 &
b1010 %
#3050710
b101 &
b101 %
#3050714
b10000 &
b10000 %
#3050718
b1000 &
b1000 %
#3050722
b100 &
b100 %
#3050726
b10 &
b10 %
#3050730
b1 &
b1 %
1#
#3050734
b0 &
0#
b0 %
0$
